<?xml version="1.0" encoding="UTF-8"?>
<svg width="96px" height="96px" viewBox="0 0 96 96" version="1.1" xmlns="http://www.w3.org/2000/svg" xmlns:xlink="http://www.w3.org/1999/xlink">
    <title>Logo 30</title>
    <g id="Logo-30" stroke="none" stroke-width="1" fill="none" fill-rule="evenodd">
        <rect id="Rectangle" fill="#156E55" x="0" y="0" width="96" height="96" rx="22"></rect>
        <circle id="Oval-Copy" stroke="#FFFFFF" stroke-width="3" cx="48" cy="48" r="34.5"></circle>
        <g id="D" transform="translate(30, 26)" fill="#FFFFFF" fill-rule="nonzero">
            <path d="M0,0 L20.9532987,0 C25.0837658,0 28.4203113,0.540245566 30.9629355,1.6207367 C33.5055597,2.70122783 35.6071164,4.2519327 37.2676056,6.2728513 C38.9280949,8.2937699 40.1319496,10.6448386 40.8791698,13.3260573 C41.6263899,16.007276 42,18.8485675 42,21.8499318 C42,26.5520691 41.4447739,30.1987267 40.3343217,32.7899045 C39.2238695,35.3810823 37.6827279,37.5520691 35.710897,39.3028649 C33.739066,41.0536608 31.6219422,42.2191905 29.3595256,42.7994543 C26.2668643,43.5998181 23.4647887,44 20.9532987,44 L0,44 L0,0 Z M11.9688658,9.96452933 L11.9688658,34.005457 L16.4994781,34.005457 C20.3634236,34.005457 23.111723,33.6903138 24.744376,33.0600273 C26.3770291,32.4297408 27.6559407,31.3292406 28.5811107,29.7585266 C29.5062808,28.1878126 29.9688658,25.6416553 29.9688658,22.1200546 C29.9688658,17.4579354 28.9348522,14.2664848 26.866825,12.5457026 C24.7987978,10.8249204 21.3702264,9.96452933 16.5811107,9.96452933 L11.9688658,9.96452933 Z" id="Shape"></path>
        </g>
    </g>
</svg>